{
  "project_info": {
    "project_number": "857780194257",
    "firebase_url": "https://sygnal-ee6a4.firebaseio.com",
    "project_id": "sygnal-ee6a4",
    "storage_bucket": "sygnal-ee6a4.appspot.com"
  },
  "client": [
    {
      "client_info": {
        "mobilesdk_app_id": "1:857780194257:android:99b4807b2ff9cec16aeef0",
        "android_client_info": {
          "package_name": "com.koktech.sygnal"
        }
      },
      "oauth_client": [
        {
          "client_id": "857780194257-srogpe995q7rn9rk7dkhcmhu49c6s84t.apps.googleusercontent.com",
          "client_type": 3
        }
      ],
      "api_key": [
        {
          "current_key": "AIzaSyDVKQmhh-fpXvry4h1Ql70UT-EfUoiiqkU"
        }
      ],
      "services": {
        "appinvite_service": {
          "other_platform_oauth_client": [
            {
              "client_id": "857780194257-srogpe995q7rn9rk7dkhcmhu49c6s84t.apps.googleusercontent.com",
              "client_type": 3
            }
          ]
        }
      }
    }
  ],
  "configuration_version": "1"
}